\relax 
\providecommand\hyper@newdestlabel[2]{}
\bibcite{bootrequirements}{1}
\bibcite{ipv6stat}{2}
\bibcite{dhcpv6prop}{3}
\bibcite{ipv6do}{4}
\bibcite{dhcpserver}{5}
\bibcite{rfc3315}{6}
\bibcite{rfc5970}{7}
\bibcite{predis}{8}
\bibcite{rfc6355}{9}
\bibcite{rfc4122}{10}
\bibcite{rfc4173}{11}
\@writefile{toc}{\contentsline {chapter}{Bibliografie}{41}{chapter.6}}
\bibcite{rfc2732}{12}
\bibcite{rfc2396}{13}
\bibcite{ipxe}{14}
\bibcite{debian}{15}
\@setckpt{biblio}{
\setcounter{page}{43}
\setcounter{equation}{0}
\setcounter{enumi}{3}
\setcounter{enumii}{0}
\setcounter{enumiii}{0}
\setcounter{enumiv}{15}
\setcounter{footnote}{0}
\setcounter{mpfootnote}{0}
\setcounter{part}{0}
\setcounter{chapter}{6}
\setcounter{section}{0}
\setcounter{subsection}{0}
\setcounter{subsubsection}{0}
\setcounter{paragraph}{0}
\setcounter{subparagraph}{0}
\setcounter{figure}{0}
\setcounter{table}{0}
\setcounter{Item}{7}
\setcounter{Hfootnote}{0}
\setcounter{bookmark@seq@number}{31}
\setcounter{AlgoLine}{0}
\setcounter{algocfline}{0}
\setcounter{algocfproc}{0}
\setcounter{algocf}{0}
\setcounter{section@level}{1}
}
