\relax 
\providecommand\hyper@newdestlabel[2]{}
\@writefile{toc}{\contentsline {chapter}{\numberline {3}Arhitectura}{7}{chapter.3}}
\@writefile{lof}{\addvspace {10\p@ }}
\@writefile{lot}{\addvspace {10\p@ }}
\@writefile{loa}{\addvspace {10\p@ }}
\@writefile{toc}{\contentsline {section}{\numberline {3.1}Entit\IeC {\u a}\IeC {\c t}i}{9}{section.3.1}}
\@writefile{lof}{\contentsline {figure}{\numberline {3.1}{\ignorespaces Entitati}}{11}{figure.3.1}}
\newlabel{fig.entitati}{{3.1}{11}{Entitati}{figure.3.1}{}}
\@writefile{toc}{\contentsline {section}{\numberline {3.2}Procesul de bootare IPv4}{12}{section.3.2}}
\@writefile{toc}{\contentsline {subsection}{\numberline {3.2.1}Etapa de bootstraping}{12}{subsection.3.2.1}}
\@writefile{lof}{\contentsline {figure}{\numberline {3.2}{\ignorespaces Cronologia mesajelor transmise IPv4}}{13}{figure.3.2}}
\newlabel{fig.MesajeIPv4}{{3.2}{13}{Cronologia mesajelor transmise IPv4}{figure.3.2}{}}
\@writefile{toc}{\contentsline {subsection}{\numberline {3.2.2}Etapa de ob\IeC {{\textcommabelow t}}inere a creden\IeC {{\textcommabelow t}}ialelor \IeC {{\textcommabelow s}}i de contactare a serverului de date}{14}{subsection.3.2.2}}
\@writefile{toc}{\contentsline {section}{\numberline {3.3}Procesul de bootare IPv6 - Argus6}{16}{section.3.3}}
\@writefile{lof}{\contentsline {figure}{\numberline {3.3}{\ignorespaces Cronologia mesajelor transmise IPv6}}{17}{figure.3.3}}
\newlabel{fig.MesajeIPv6}{{3.3}{17}{Cronologia mesajelor transmise IPv6}{figure.3.3}{}}
\@setckpt{c3}{
\setcounter{page}{19}
\setcounter{equation}{0}
\setcounter{enumi}{4}
\setcounter{enumii}{0}
\setcounter{enumiii}{0}
\setcounter{enumiv}{0}
\setcounter{footnote}{0}
\setcounter{mpfootnote}{0}
\setcounter{part}{0}
\setcounter{chapter}{3}
\setcounter{section}{3}
\setcounter{subsection}{0}
\setcounter{subsubsection}{0}
\setcounter{paragraph}{0}
\setcounter{subparagraph}{0}
\setcounter{figure}{3}
\setcounter{table}{0}
\setcounter{Item}{4}
\setcounter{Hfootnote}{0}
\setcounter{bookmark@seq@number}{8}
\setcounter{AlgoLine}{0}
\setcounter{algocfline}{0}
\setcounter{algocfproc}{0}
\setcounter{algocf}{0}
\setcounter{section@level}{1}
}
