\relax 
\providecommand\hyper@newdestlabel[2]{}
\@writefile{toc}{\contentsline {chapter}{\numberline {4}Implementare}{19}{chapter.4}}
\@writefile{lof}{\addvspace {10\p@ }}
\@writefile{lot}{\addvspace {10\p@ }}
\@writefile{loa}{\addvspace {10\p@ }}
\@writefile{toc}{\contentsline {section}{\numberline {4.1}Mediu de testare}{20}{section.4.1}}
\citation{dhcpserver}
\@writefile{toc}{\contentsline {section}{\numberline {4.2}Server DHCP (bootstrapping)}{21}{section.4.2}}
\citation{rfc3315}
\citation{rfc5970}
\@writefile{toc}{\contentsline {section}{\numberline {4.3}Server DHCPv6}{22}{section.4.3}}
\citation{predis}
\@writefile{toc}{\contentsline {subsection}{\numberline {4.3.1}Transla\IeC {\c t}ie DHCPv4-DHCPv6}{24}{subsection.4.3.1}}
\@writefile{toc}{\contentsline {subsection}{\numberline {4.3.2}Client identifier}{24}{subsection.4.3.2}}
\citation{rfc6355}
\citation{rfc4122}
\@writefile{toc}{\contentsline {section}{\numberline {4.4}Undionly.kpxe}{25}{section.4.4}}
\@writefile{toc}{\contentsline {section}{\numberline {4.5}Server iSCSI}{27}{section.4.5}}
\citation{rfc4173}
\citation{rfc2732}
\citation{rfc2396}
\@writefile{toc}{\contentsline {subsection}{\numberline {4.5.1}iSCSI URI}{28}{subsection.4.5.1}}
\@writefile{toc}{\contentsline {section}{\numberline {4.6}Server web}{28}{section.4.6}}
\citation{ipxe}
\@writefile{toc}{\contentsline {subsection}{\numberline {4.6.1}Script iPXE}{29}{subsection.4.6.1}}
\citation{debian}
\@writefile{toc}{\contentsline {section}{\numberline {4.7}Sisteme de operare}{30}{section.4.7}}
\@writefile{toc}{\contentsline {subsection}{\numberline {4.7.1}Debian}{30}{subsection.4.7.1}}
\@writefile{toc}{\contentsline {subsection}{\numberline {4.7.2}CentOS}{30}{subsection.4.7.2}}
\@setckpt{c4}{
\setcounter{page}{32}
\setcounter{equation}{0}
\setcounter{enumi}{3}
\setcounter{enumii}{0}
\setcounter{enumiii}{0}
\setcounter{enumiv}{0}
\setcounter{footnote}{0}
\setcounter{mpfootnote}{0}
\setcounter{part}{0}
\setcounter{chapter}{4}
\setcounter{section}{7}
\setcounter{subsection}{2}
\setcounter{subsubsection}{0}
\setcounter{paragraph}{0}
\setcounter{subparagraph}{0}
\setcounter{figure}{0}
\setcounter{table}{0}
\setcounter{Item}{7}
\setcounter{Hfootnote}{0}
\setcounter{bookmark@seq@number}{22}
\setcounter{AlgoLine}{0}
\setcounter{algocfline}{0}
\setcounter{algocfproc}{0}
\setcounter{algocf}{0}
\setcounter{section@level}{2}
}
