\relax 
\providecommand\hyper@newdestlabel[2]{}
\@writefile{toc}{\contentsline {chapter}{\numberline {5}Rezultate}{32}{chapter.5}}
\@writefile{lof}{\addvspace {10\p@ }}
\@writefile{lot}{\addvspace {10\p@ }}
\@writefile{loa}{\addvspace {10\p@ }}
\@writefile{toc}{\contentsline {section}{\numberline {5.1}Func\IeC {\c t}ionarea aplica\IeC {\c t}iei}{32}{section.5.1}}
\@writefile{toc}{\contentsline {subsection}{\numberline {5.1.1}Bootstrap}{33}{subsection.5.1.1}}
\@writefile{lof}{\contentsline {figure}{\numberline {5.1}{\ignorespaces Etapa de bootstrap}}{33}{figure.5.1}}
\newlabel{fig.Bootstrap}{{5.1}{33}{Etapa de bootstrap}{figure.5.1}{}}
\@writefile{toc}{\contentsline {subsection}{\numberline {5.1.2}DHCPv6}{34}{subsection.5.1.2}}
\@writefile{lof}{\contentsline {figure}{\numberline {5.2}{\ignorespaces DHCPv6}}{35}{figure.5.2}}
\newlabel{fig.DHCPV6}{{5.2}{35}{DHCPv6}{figure.5.2}{}}
\@writefile{toc}{\contentsline {subsection}{\numberline {5.1.3}iSCSI}{36}{subsection.5.1.3}}
\@writefile{lof}{\contentsline {figure}{\numberline {5.3}{\ignorespaces iSCSI}}{36}{figure.5.3}}
\newlabel{fig.iSCSI}{{5.3}{36}{iSCSI}{figure.5.3}{}}
\@writefile{toc}{\contentsline {subsection}{\numberline {5.1.4}Sistem de operare}{37}{subsection.5.1.4}}
\@writefile{lof}{\contentsline {figure}{\numberline {5.4}{\ignorespaces Sistem de operare}}{38}{figure.5.4}}
\newlabel{fig.Final}{{5.4}{38}{Sistem de operare}{figure.5.4}{}}
\@writefile{toc}{\contentsline {section}{\numberline {5.2}Imbun\IeC {\u a}t\IeC {\u a}\IeC {\c t}iri viitoare}{38}{section.5.2}}
\@setckpt{c5}{
\setcounter{page}{40}
\setcounter{equation}{0}
\setcounter{enumi}{3}
\setcounter{enumii}{0}
\setcounter{enumiii}{0}
\setcounter{enumiv}{0}
\setcounter{footnote}{0}
\setcounter{mpfootnote}{0}
\setcounter{part}{0}
\setcounter{chapter}{5}
\setcounter{section}{2}
\setcounter{subsection}{0}
\setcounter{subsubsection}{0}
\setcounter{paragraph}{0}
\setcounter{subparagraph}{0}
\setcounter{figure}{4}
\setcounter{table}{0}
\setcounter{Item}{7}
\setcounter{Hfootnote}{0}
\setcounter{bookmark@seq@number}{29}
\setcounter{AlgoLine}{0}
\setcounter{algocfline}{0}
\setcounter{algocfproc}{0}
\setcounter{algocf}{0}
\setcounter{section@level}{1}
}
