\BOOKMARK [0][-]{chapter.1}{\376\377\000I\000n\000t\000r\000o\000d\000u\000c\000e\000r\000e}{}% 1
\BOOKMARK [0][-]{chapter.2}{\376\377\000T\000e\000h\000n\000o\000l\000o\000g\000i\000i\000\040\000d\000e\000\040\000u\000l\000t\000i\000m\001\003\000\040\000o\000r\001\003}{}% 2
\BOOKMARK [0][-]{chapter.3}{\376\377\000A\000r\000h\000i\000t\000e\000c\000t\000u\000r\000a}{}% 3
\BOOKMARK [1][-]{section.3.1}{\376\377\000E\000n\000t\000i\000t\001\003\001\143\000i}{chapter.3}% 4
\BOOKMARK [1][-]{section.3.2}{\376\377\000P\000r\000o\000c\000e\000s\000u\000l\000\040\000d\000e\000\040\000b\000o\000o\000t\000a\000r\000e\000\040\000I\000P\000v\0004}{chapter.3}% 5
\BOOKMARK [2][-]{subsection.3.2.1}{\376\377\000E\000t\000a\000p\000a\000\040\000d\000e\000\040\000b\000o\000o\000t\000s\000t\000r\000a\000p\000i\000n\000g}{section.3.2}% 6
\BOOKMARK [2][-]{subsection.3.2.2}{\376\377\000E\000t\000a\000p\000a\000\040\000d\000e\000\040\000o\000b\002\033\000i\000n\000e\000r\000e\000\040\000a\000\040\000c\000r\000e\000d\000e\000n\002\033\000i\000a\000l\000e\000l\000o\000r\000\040\002\031\000i\000\040\000d\000e\000\040\000c\000o\000n\000t\000a\000c\000t\000a\000r\000e\000\040\000a\000\040\000s\000e\000r\000v\000e\000r\000u\000l\000u\000i\000\040\000d\000e\000\040\000d\000a\000t\000e}{section.3.2}% 7
\BOOKMARK [1][-]{section.3.3}{\376\377\000P\000r\000o\000c\000e\000s\000u\000l\000\040\000d\000e\000\040\000b\000o\000o\000t\000a\000r\000e\000\040\000I\000P\000v\0006\000\040\000-\000\040\000A\000r\000g\000u\000s\0006}{chapter.3}% 8
\BOOKMARK [0][-]{chapter.4}{\376\377\000I\000m\000p\000l\000e\000m\000e\000n\000t\000a\000r\000e}{}% 9
\BOOKMARK [1][-]{section.4.1}{\376\377\000M\000e\000d\000i\000u\000\040\000d\000e\000\040\000t\000e\000s\000t\000a\000r\000e}{chapter.4}% 10
\BOOKMARK [1][-]{section.4.2}{\376\377\000S\000e\000r\000v\000e\000r\000\040\000D\000H\000C\000P\000\040\000\050\000b\000o\000o\000t\000s\000t\000r\000a\000p\000p\000i\000n\000g\000\051}{chapter.4}% 11
\BOOKMARK [1][-]{section.4.3}{\376\377\000S\000e\000r\000v\000e\000r\000\040\000D\000H\000C\000P\000v\0006}{chapter.4}% 12
\BOOKMARK [2][-]{subsection.4.3.1}{\376\377\000T\000r\000a\000n\000s\000l\000a\001\143\000i\000e\000\040\000D\000H\000C\000P\000v\0004\000-\000D\000H\000C\000P\000v\0006}{section.4.3}% 13
\BOOKMARK [2][-]{subsection.4.3.2}{\376\377\000C\000l\000i\000e\000n\000t\000\040\000i\000d\000e\000n\000t\000i\000f\000i\000e\000r}{section.4.3}% 14
\BOOKMARK [1][-]{section.4.4}{\376\377\000U\000n\000d\000i\000o\000n\000l\000y\000.\000k\000p\000x\000e}{chapter.4}% 15
\BOOKMARK [1][-]{section.4.5}{\376\377\000S\000e\000r\000v\000e\000r\000\040\000i\000S\000C\000S\000I}{chapter.4}% 16
\BOOKMARK [2][-]{subsection.4.5.1}{\376\377\000i\000S\000C\000S\000I\000\040\000U\000R\000I}{section.4.5}% 17
\BOOKMARK [1][-]{section.4.6}{\376\377\000S\000e\000r\000v\000e\000r\000\040\000w\000e\000b}{chapter.4}% 18
\BOOKMARK [2][-]{subsection.4.6.1}{\376\377\000S\000c\000r\000i\000p\000t\000\040\000i\000P\000X\000E}{section.4.6}% 19
\BOOKMARK [1][-]{section.4.7}{\376\377\000S\000i\000s\000t\000e\000m\000e\000\040\000d\000e\000\040\000o\000p\000e\000r\000a\000r\000e}{chapter.4}% 20
\BOOKMARK [2][-]{subsection.4.7.1}{\376\377\000D\000e\000b\000i\000a\000n}{section.4.7}% 21
\BOOKMARK [2][-]{subsection.4.7.2}{\376\377\000C\000e\000n\000t\000O\000S}{section.4.7}% 22
\BOOKMARK [0][-]{chapter.5}{\376\377\000R\000e\000z\000u\000l\000t\000a\000t\000e}{}% 23
\BOOKMARK [1][-]{section.5.1}{\376\377\000F\000u\000n\000c\001\143\000i\000o\000n\000a\000r\000e\000a\000\040\000a\000p\000l\000i\000c\000a\001\143\000i\000e\000i}{chapter.5}% 24
\BOOKMARK [2][-]{subsection.5.1.1}{\376\377\000B\000o\000o\000t\000s\000t\000r\000a\000p}{section.5.1}% 25
\BOOKMARK [2][-]{subsection.5.1.2}{\376\377\000D\000H\000C\000P\000v\0006}{section.5.1}% 26
\BOOKMARK [2][-]{subsection.5.1.3}{\376\377\000i\000S\000C\000S\000I}{section.5.1}% 27
\BOOKMARK [2][-]{subsection.5.1.4}{\376\377\000S\000i\000s\000t\000e\000m\000\040\000d\000e\000\040\000o\000p\000e\000r\000a\000r\000e}{section.5.1}% 28
\BOOKMARK [1][-]{section.5.2}{\376\377\000I\000m\000b\000u\000n\001\003\000t\001\003\001\143\000i\000r\000i\000\040\000v\000i\000i\000t\000o\000a\000r\000e}{chapter.5}% 29
\BOOKMARK [0][-]{chapter.6}{\376\377\000C\000o\000n\000c\000l\000u\000z\000i\000i}{}% 30
\BOOKMARK [0][-]{chapter.6}{\376\377\000B\000i\000b\000l\000i\000o\000g\000r\000a\000f\000i\000e}{}% 31
